INDEX VERSION 1.127+C:\Users\17dpaikin\Desktop\Java\Eclipse\.metadata\.plugins\org.eclipse.jdt.core
1711322867.index
2518832212.index
2188890779.index
1658264207.index
3294775327.index
781519010.index
1222229280.index
3589170300.index
2431652207.index
2732149678.index
1462249469.index
2580813118.index
1673631233.index
4237857608.index
1622814507.index
3150830534.index
1808140352.index
107573622.index
286342110.index
3507785467.index
1782795929.index
3065128987.index
1375063860.index
2722947555.index
188760391.index
1657330681.index
275022229.index
3981129953.index
978568099.index
3085658201.index
596384101.index
3321337437.index
2380175872.index
1159660367.index
3827776813.index
3176882768.index
1282133285.index
2119203170.index
1325819670.index
3107371744.index
3352764244.index
3335684591.index
2528519936.index
3713836620.index
2481969107.index
810302959.index
338660981.index
136856314.index
2412066262.index
2157952529.index
