<?xml version="1.0" encoding="UTF-8"?>
<session version="1.0">
<refactoring comment="Delete resource &apos;Illusio&apos;" deleteContents="false" description="Delete resource &apos;Illusio&apos;" element1="/Illusio" flags="7" id="org.eclipse.ltk.core.refactoring.delete.resources" resources="1" stamp="1444840050629"/>
</session>