<?xml version="1.0" encoding="UTF-8"?>
<session version="1.0">
<refactoring comment="Rename Java project &apos;EvenOdd&apos; to &apos;ChapterNine&apos;&#x0D;&#x0A;- Original element: &apos;EvenOdd&apos;&#x0D;&#x0A;- Renamed element: &apos;EvenOdd&apos;&#x0D;&#x0A;- Update references to refactored element" description="Rename Java project &apos;EvenOdd&apos;" flags="7" id="org.eclipse.jdt.ui.rename.java.project" input="=EvenOdd" name="ChapterNine" references="true" stamp="1449073773587" version="1.0"/>
</session>