<?xml version="1.0" encoding="UTF-8"?>
<session version="1.0">
<refactoring comment="Rename Java project &apos;Graph&apos; to &apos;Grapher&apos;&#x0D;&#x0A;- Original element: &apos;Graph&apos;&#x0D;&#x0A;- Renamed element: &apos;Graph&apos;&#x0D;&#x0A;- Update references to refactored element" description="Rename Java project &apos;Graph&apos;" flags="7" id="org.eclipse.jdt.ui.rename.java.project" input="=Graph" name="Grapher" references="true" stamp="1445439121729" version="1.0"/>
</session>